…
[1] "LUSC"
[1] "SARC"
[1] "KIRC"
[1] "OV"
[1] "UCEC"
[1] "LGG"
[1] "MESO"
[1] "CHOL"
[1] "STAD"
[1] "COAD"
[1] "TGCT"
[1] "DLBC"
[1] "READ"
Initialising 33 core cluster.
Source: party_df [33 x 4]
Groups: PARTITION_ID
Shards: 33 [1--1 rows]

# S3: party_df
   cancer_types                    expr PARTITION_ID   out
          <chr>                  <list>        <dbl> <chr>
 1         BLCA <tibble [20,531 x 429]>            1  BLCA
 2         MESO  <tibble [20,531 x 89]>            2  MESO
 3         PAAD <tibble [20,531 x 185]>            3  PAAD
 4         KIRP <tibble [20,531 x 325]>            4  KIRP
 5          UCS  <tibble [20,531 x 59]>            5   UCS
 6         PCPG <tibble [20,531 x 189]>            6  PCPG
 7         KICH  <tibble [20,531 x 93]>            7  KICH
 8         PRAD <tibble [20,531 x 552]>            8  PRAD
 9         LUAD <tibble [20,531 x 578]>            9  LUAD
10         LUSC <tibble [20,531 x 556]>           10  LUSC
# ... with 23 more rows
…
